100.4.179.102 - - [18/Mar/2018:00:02:55 -0400] "GET /js/jquery.parallax-1.1.3.js HTTP/1.1" 200 888 taracloth.com "http://taracloth.com/" "Mozilla/5.0 (Macintosh; Intel Mac OS X 10_13_3) AppleWebKit/537.36 (KHTML, like Gecko) Chrome/64.0.3282.186 Safari/537.36" "-"
100.4.179.102 - - [18/Mar/2018:00:02:56 -0400] "GET /img/icons/logo.png HTTP/1.1" 200 2728 taracloth.com "http://taracloth.com/" "Mozilla/5.0 (Macintosh; Intel Mac OS X 10_13_3) AppleWebKit/537.36 (KHTML, like Gecko) Chrome/64.0.3282.186 Safari/537.36" "-"
100.4.179.102 - - [18/Mar/2018:00:02:56 -0400] "GET /img/agency/design.png HTTP/1.1" 200 3524 taracloth.com "http://taracloth.com/" "Mozilla/5.0 (Macintosh; Intel Mac OS X 10_13_3) AppleWebKit/537.36 (KHTML, like Gecko) Chrome/64.0.3282.186 Safari/537.36" "-"
100.4.179.102 - - [18/Mar/2018:00:02:56 -0400] "GET /img/agency/production.png HTTP/1.1" 200 2620 taracloth.com "http://taracloth.com/" "Mozilla/5.0 (Macintosh; Intel Mac OS X 10_13_3) AppleWebKit/537.36 (KHTML, like Gecko) Chrome/64.0.3282.186 Safari/537.36" "-"
100.4.179.102 - - [18/Mar/2018:00:02:56 -0400] "GET /img/agency/shipping.png HTTP/1.1" 200 3028 taracloth.com "http://taracloth.com/" "Mozilla/5.0 (Macintosh; Intel Mac OS X 10_13_3) AppleWebKit/537.36 (KHTML, like Gecko) Chrome/64.0.3282.186 Safari/537.36" "-"
100.4.179.102 - - [18/Mar/2018:00:02:56 -0400] "GET /img/icons/product_1.png HTTP/1.1" 200 111499 taracloth.com "http://taracloth.com/" "Mozilla/5.0 (Macintosh; Intel Mac OS X 10_13_3) AppleWebKit/537.36 (KHTML, like Gecko) Chrome/64.0.3282.186 Safari/537.36" "-"
100.4.179.102 - - [18/Mar/2018:00:02:56 -0400] "GET /fonts/fontawesome-webfont.woff2?v=4.4.0 HTTP/1.1" 200 64464 taracloth.com "http://taracloth.com/css/font-awesome.min.css" "Mozilla/5.0 (Macintosh; Intel Mac OS X 10_13_3) AppleWebKit/537.36 (KHTML, like Gecko) Chrome/64.0.3282.186 Safari/537.36" "-"
100.4.179.102 - - [18/Mar/2018:00:02:56 -0400] "GET /img/icons/product_2.png HTTP/1.1" 200 150325 taracloth.com "http://taracloth.com/" "Mozilla/5.0 (Macintosh; Intel Mac OS X 10_13_3) AppleWebKit/537.36 (KHTML, like Gecko) Chrome/64.0.3282.186 Safari/537.36" "-"
100.4.179.102 - - [18/Mar/2018:00:02:56 -0400] "GET /img/icons/product_3.png HTTP/1.1" 200 147142 taracloth.com "http://taracloth.com/" "Mozilla/5.0 (Macintosh; Intel Mac OS X 10_13_3) AppleWebKit/537.36 (KHTML, like Gecko) Chrome/64.0.3282.186 Safari/537.36" "-"
100.4.179.102 - - [18/Mar/2018:00:02:56 -0400] "GET /img/icons/product_4.png HTTP/1.1" 200 129348 taracloth.com "http://taracloth.com/" "Mozilla/5.0 (Macintosh; Intel Mac OS X 10_13_3) AppleWebKit/537.36 (KHTML, like Gecko) Chrome/64.0.3282.186 Safari/537.36" "-"
100.4.179.102 - - [18/Mar/2018:00:02:56 -0400] "GET /img/agency/woman1.png HTTP/1.1" 200 2170 taracloth.com "http://taracloth.com/" "Mozilla/5.0 (Macintosh; Intel Mac OS X 10_13_3) AppleWebKit/537.36 (KHTML, like Gecko) Chrome/64.0.3282.186 Safari/537.36" "-"
100.4.179.102 - - [18/Mar/2018:00:02:56 -0400] "GET /img/agency/agency3-header.jpg HTTP/1.1" 200 113107 taracloth.com "http://taracloth.com/css/main.css" "Mozilla/5.0 (Macintosh; Intel Mac OS X 10_13_3) AppleWebKit/537.36 (KHTML, like Gecko) Chrome/64.0.3282.186 Safari/537.36" "-"
100.4.179.102 - - [18/Mar/2018:00:02:56 -0400] "GET /img/agency/man.png HTTP/1.1" 200 2337 taracloth.com "http://taracloth.com/" "Mozilla/5.0 (Macintosh; Intel Mac OS X 10_13_3) AppleWebKit/537.36 (KHTML, like Gecko) Chrome/64.0.3282.186 Safari/537.36" "-"
100.4.179.102 - - [18/Mar/2018:00:02:56 -0400] "GET /img/agency/facebook.png HTTP/1.1" 200 601 taracloth.com "http://taracloth.com/" "Mozilla/5.0 (Macintosh; Intel Mac OS X 10_13_3) AppleWebKit/537.36 (KHTML, like Gecko) Chrome/64.0.3282.186 Safari/537.36" "-"
100.4.179.102 - - [18/Mar/2018:00:02:56 -0400] "GET /img/agency/twitter.png HTTP/1.1" 200 1707 taracloth.com "http://taracloth.com/" "Mozilla/5.0 (Macintosh; Intel Mac OS X 10_13_3) AppleWebKit/537.36 (KHTML, like Gecko) Chrome/64.0.3282.186 Safari/537.36" "-"
100.4.179.102 - - [18/Mar/2018:00:02:56 -0400] "GET /img/agency/pinterest.png HTTP/1.1" 200 1846 taracloth.com "http://taracloth.com/" "Mozilla/5.0 (Macintosh; Intel Mac OS X 10_13_3) AppleWebKit/537.36 (KHTML, like Gecko) Chrome/64.0.3282.186 Safari/537.36" "-"
100.4.179.102 - - [18/Mar/2018:00:02:56 -0400] "GET /img/college/parallax.jpg HTTP/1.1" 404 1363 taracloth.com "http://taracloth.com/css/main.css" "Mozilla/5.0 (Macintosh; Intel Mac OS X 10_13_3) AppleWebKit/537.36 (KHTML, like Gecko) Chrome/64.0.3282.186 Safari/537.36" "-"
100.4.179.102 - - [18/Mar/2018:00:02:56 -0400] "GET /img/agency/insta.png HTTP/1.1" 200 1426 taracloth.com "http://taracloth.com/" "Mozilla/5.0 (Macintosh; Intel Mac OS X 10_13_3) AppleWebKit/537.36 (KHTML, like Gecko) Chrome/64.0.3282.186 Safari/537.36" "-"
100.4.179.102 - - [18/Mar/2018:00:02:56 -0400] "GET /img/agency/linkedin.png HTTP/1.1" 200 1297 taracloth.com "http://taracloth.com/" "Mozilla/5.0 (Macintosh; Intel Mac OS X 10_13_3) AppleWebKit/537.36 (KHTML, like Gecko) Chrome/64.0.3282.186 Safari/537.36" "-"
100.4.179.102 - - [18/Mar/2018:00:02:57 -0400] "GET /img/loading.gif HTTP/1.1" 200 8476 taracloth.com "http://taracloth.com/css/lightbox.css" "Mozilla/5.0 (Macintosh; Intel Mac OS X 10_13_3) AppleWebKit/537.36 (KHTML, like Gecko) Chrome/64.0.3282.186 Safari/537.36" "-"
100.4.179.102 - - [18/Mar/2018:00:02:57 -0400] "GET /img/icons/cross_white.png HTTP/1.1" 200 1154 taracloth.com "http://taracloth.com/css/main.css" "Mozilla/5.0 (Macintosh; Intel Mac OS X 10_13_3) AppleWebKit/537.36 (KHTML, like Gecko) Chrome/64.0.3282.186 Safari/537.36" "-"
100.4.179.102 - - [18/Mar/2018:00:03:59 -0400] "GET / HTTP/1.1" 304 - taracloth.com "-" "Mozilla/5.0 (Macintosh; Intel Mac OS X 10_13_3) AppleWebKit/537.36 (KHTML, like Gecko) Chrome/64.0.3282.186 Safari/537.36" "-"
100.4.179.102 - - [18/Mar/2018:00:04:00 -0400] "GET /img/college/parallax.jpg HTTP/1.1" 404 1363 taracloth.com "http://taracloth.com/css/main.css" "Mozilla/5.0 (Macintosh; Intel Mac OS X 10_13_3) AppleWebKit/537.36 (KHTML, like Gecko) Chrome/64.0.3282.186 Safari/537.36" "-"
100.4.179.102 - - [18/Mar/2018:00:04:01 -0400] "GET /img/icons/favicon.png HTTP/1.1" 200 1460 taracloth.com "http://taracloth.com/" "Mozilla/5.0 (Macintosh; Intel Mac OS X 10_13_3) AppleWebKit/537.36 (KHTML, like Gecko) Chrome/64.0.3282.186 Safari/537.36" "-"
